<svg width="676" height="175" viewBox="0 0 676 175" fill="none" xmlns="http://www.w3.org/2000/svg">
<g clip-path="url(#clip0_2685_987)">
<g clip-path="url(#clip1_2685_987)">
<path d="M25.2553 102.425L31.4193 102.553C29.2949 101.818 27.2349 100.924 25.2553 99.8709V102.425ZM34.5414 101.579V102.425L31.4193 102.553C37.2935 104.548 42.6688 104.819 46.66 103.702C43.4574 103.734 39.2891 103.287 34.5414 101.579ZM100.349 83.1901C102.908 83.1901 105 81.131 105 78.577C105 76.023 102.924 74.6662 100.349 74.6662C97.7899 74.6662 95.6977 76.039 95.6977 78.577C95.6977 81.115 97.7738 83.1901 100.349 83.1901ZM95.6816 102.425H105V84.7864H95.6816V102.425ZM83.8205 102.425H93.1388V71.2502L83.8205 75.608V102.425ZM78.8314 83.3657C75.9024 80.4606 70.7202 80.6362 70.7202 80.6362C70.7202 80.6362 65.5219 80.4606 62.6089 83.3657C59.6799 86.2709 59.9052 88.777 59.9052 91.762C59.9052 94.747 59.6799 97.2371 62.6089 100.142C65.538 103.047 70.7202 102.872 70.7202 102.872C70.7202 102.872 75.9185 103.047 78.8314 100.142C81.7605 97.2371 81.5352 94.747 81.5352 91.762C81.5191 88.761 81.7444 86.2549 78.8314 83.3657ZM72.4261 94.8427C72.4261 95.4174 72.1364 96.838 70.7041 96.838C69.2718 96.838 68.9821 95.4174 68.9821 94.8427V88.3939C68.9821 87.0052 70.1569 86.654 70.7041 86.654C71.2513 86.654 72.4261 86.9892 72.4261 88.3939V94.8427ZM55.3346 83.3657C52.4055 80.4606 47.2233 80.6362 47.2233 80.6362C47.2233 80.6362 42.0411 80.4606 39.1121 83.3657C38.8063 83.669 38.5166 83.9883 38.2591 84.3235C32.1113 79.5986 26.5911 76.9009 21.8274 74.5704V71.2662L18.2063 72.9582C9.45129 69.4305 3.88285 70.0531 2.54707 72.9742C2.54707 72.9742 -1.46027 78.2099 12.493 90.6606V102.425H21.8113V97.8596C20.7652 97.1892 19.7191 96.4709 18.6891 95.6887C16.3072 93.9009 14.2794 92.2409 12.5091 90.6765V85.7282C14.6174 88.0747 17.4177 90.7404 21.1032 93.7573L21.8274 94.3319V89.5751C21.8274 88.4737 22.101 86.67 23.5655 86.67C25.03 86.67 25.2714 87.7714 25.2714 89.0643V96.838C28.1683 98.7855 31.2744 100.366 34.5575 101.563V86.5742C34.5575 83.5892 32.401 80.6042 28.0235 80.6042C25.4807 80.5883 23.1149 81.9132 21.8274 84.1V75.4324C28.5707 78.7685 35.33 82.8549 37.905 84.7385C36.2635 87.069 36.4083 89.2239 36.4083 91.7141C36.4083 94.6991 36.183 97.1892 39.1121 100.094C42.0411 103 47.2233 102.824 47.2233 102.824C47.2233 102.824 52.4216 103 55.3346 100.094C58.2636 97.1892 58.0222 94.6991 58.0222 91.7141C58.0222 88.761 58.2636 86.2549 55.3346 83.3657ZM12.493 75.608V85.7122C4.65535 77.0127 6.23254 73.5808 6.82801 73.0859C9.00066 71.2662 12.8632 71.8089 17.1924 73.4211L12.493 75.608ZM48.9453 94.8427C48.9453 95.4174 48.6557 96.838 47.2233 96.838C45.791 96.838 45.5013 95.4174 45.5013 94.8427V88.3939C45.5013 87.0052 46.6761 86.654 47.2233 86.654C47.7705 86.654 48.9453 86.9892 48.9453 88.3939V94.8427Z" fill="#737373"/>
</g>
</g>
<g clip-path="url(#clip2_2685_987)">
<path d="M123.5 58.9955H136.112V93.0101C136.112 98.4049 138.544 101.616 140.521 102.952C138.463 104.761 132.221 106.358 127.52 102.496C124.764 100.214 123.5 96.4165 123.5 92.8797V58.9955ZM202.269 87.2731V83.6875H206.127V71.1703H201.896C200.259 63.6242 193.596 58.0176 185.637 58.0176C176.461 58.0176 168.988 65.5148 168.988 74.756V103.963C171.582 104.337 174.727 103.914 177.369 101.681C180.141 99.3991 181.389 95.6179 181.389 92.0648V90.9728H187.679V78.4557H181.389V74.6582C181.389 69.019 189.851 69.019 189.851 74.6582V87.2242C189.851 96.4491 197.308 103.963 206.5 103.963V91.4944C204.149 91.4944 202.269 89.5875 202.269 87.2731ZM154.56 71.1377V89.5549C154.56 92.0648 150.702 92.0648 150.702 89.5549V71.1377H138.252V92.7656C138.252 96.6446 139.549 101.567 145.547 103.18C151.545 104.778 154.982 101.453 154.982 101.453C154.641 103.637 152.631 105.25 149.324 105.576C146.811 105.837 143.618 104.989 142.029 104.305V115.763C146.098 116.985 150.378 117.36 154.609 116.529C162.244 115.045 167.059 108.64 167.059 100.1V71.0563H154.56V71.1377Z" fill="#737373"/>
</g>
<g clip-path="url(#clip3_2685_987)">
<path d="M327.5 50.1455C314.622 58.828 313.252 65.1293 312.136 67.057C311.068 69.0332 310.272 76.8248 308.423 80.5991C306.558 84.422 299.785 87.4349 297.888 88.6984C296.023 89.9619 293.378 94.8701 291.21 99.098C273.982 98.3853 264.531 105.383 249.9 114.26C254.586 112.689 256.801 111.555 256.801 111.555C271.814 105.723 279.002 100.491 301.602 103.585C301.777 103.585 301.904 103.682 302.048 103.715C302.669 104.071 302.892 104.832 302.542 105.464L293.952 120.982C293.553 121.744 292.708 122.149 291.864 121.971C271.655 118.115 255.702 124.773 241.039 124.984C229.341 125.162 225.5 119.557 225.5 119.298C225.5 119.12 225.596 119.022 225.771 119.022C225.771 119.022 231.875 119.022 242.202 116.544C253.932 93.8172 264.387 85.8636 275.767 85.8636C275.767 85.8636 287.194 85.8636 290.206 95.8906C293.84 89.4598 294.717 87.9209 294.717 87.9209C295.561 86.3982 300.295 75.4155 308.487 65.0159C316.694 54.6487 322.894 52.0732 327.5 50.1455Z" fill="#737373"/>
</g>
<g clip-path="url(#clip4_2685_987)">
<g clip-path="url(#clip5_2685_987)">
<path d="M373.055 69.7932L366.087 71.2568L366.054 93.9114C366.054 98.0955 369.241 100.8 373.474 100.8C375.823 100.8 377.545 100.37 378.495 99.8614V94.4841C377.578 94.85 373.071 96.1546 373.071 91.9864V81.9318H378.495V75.9182H373.071L373.055 69.7932ZM387.395 78.0023L386.96 75.9182H380.78V100.291H387.91V83.8886C389.6 81.6932 392.448 82.1227 393.366 82.4091V75.9182C392.4 75.5841 389.068 74.9636 387.395 78.0023ZM402.249 66.5L395.071 68.0114V73.7705L402.249 72.2591V66.5ZM353.727 83.0932C353.727 81.9955 354.66 81.5659 356.157 81.55C358.329 81.55 361.098 82.2023 363.27 83.3636V76.7136C360.904 75.7909 358.539 75.425 356.173 75.425C350.379 75.425 346.517 78.4159 346.517 83.4114C346.517 91.2386 357.38 89.9659 357.38 93.3386C357.38 94.6432 356.237 95.0727 354.644 95.0727C352.278 95.0727 349.22 94.1023 346.822 92.8136V99.1773C349.478 100.307 352.166 100.784 354.628 100.784C360.566 100.784 364.654 98.2705 364.654 93.1795C364.654 84.7636 353.727 86.275 353.727 83.0932ZM449.501 88.3909C449.501 81.1523 445.96 75.4409 439.168 75.4409C432.377 75.4409 428.241 81.1523 428.241 88.3432C428.241 96.8545 433.117 100.784 440.07 100.784C443.481 100.784 446.04 100.02 447.988 98.9545V93.6409C446.04 94.6114 443.803 95.2 440.971 95.2C438.187 95.2 435.74 94.2295 435.418 90.9205H449.404C449.436 90.5545 449.501 89.075 449.501 88.3909ZM435.354 85.7182C435.354 82.5364 437.334 81.2 439.12 81.2C440.874 81.2 442.741 82.5364 442.741 85.7182H435.354ZM417.184 75.4409C414.384 75.4409 412.581 76.7455 411.584 77.6523L411.213 75.9023H404.921V108.484L412.066 106.989L412.083 99.0023C413.113 99.75 414.641 100.784 417.136 100.784C422.254 100.784 426.921 97.0932 426.921 88.1205C426.937 79.9114 422.206 75.4409 417.184 75.4409ZM415.478 94.9296C413.805 94.9296 412.807 94.325 412.115 93.5932L412.066 83.0932C412.807 82.2818 413.837 81.6932 415.478 81.6932C418.086 81.6932 419.888 84.5886 419.888 88.2795C419.904 92.0818 418.134 94.9296 415.478 94.9296ZM395.088 100.291H402.265V75.9182H395.088V100.291Z" fill="#737373"/>
</g>
</g>
<g clip-path="url(#clip6_2685_987)">
<path d="M498.387 78.4882C498.27 82.1263 500.104 83.7373 500.149 84.7605C500.128 84.9687 500.056 85.1688 499.941 85.344C499.825 85.5192 499.669 85.6645 499.485 85.7676L497.412 87.2068C497.143 87.3933 496.827 87.5002 496.5 87.5151C496.43 87.5119 495.173 87.8091 493.182 83.4016C491.967 84.905 490.422 86.1128 488.664 86.9327C486.906 87.7526 484.982 88.1628 483.039 88.1319C480.402 88.2749 473.255 86.6478 473.623 79.1034C473.365 72.9548 479.14 69.1352 485.113 69.4581C486.263 69.4613 488.612 69.5175 492.725 70.4651V67.9562C493.161 63.7062 490.344 60.4086 485.466 60.9033C485.077 60.9049 482.323 60.823 478.04 62.5272C476.848 63.0701 476.696 62.9802 476.299 62.9802C475.099 62.9802 475.593 59.53 475.823 59.0931C476.667 58.0652 481.632 56.1457 486.505 56.173C489.763 55.8873 493.003 56.8843 495.526 58.9486C496.551 60.0859 497.334 61.4175 497.826 62.863C498.318 64.3085 498.509 65.8379 498.388 67.3587L498.387 78.4882ZM484.387 83.6907C489.641 83.6153 491.865 80.4831 492.372 78.7966C492.77 77.1824 492.704 76.1608 492.704 74.3956C491.138 74.0229 488.883 73.6165 486.296 73.6133C483.841 73.4302 479.359 74.5176 479.534 78.795C479.333 81.4918 481.335 83.8385 484.387 83.6907ZM512.075 87.3931C510.802 87.5087 510.209 86.6125 510.021 85.7274L501.954 59.2811C501.797 58.8345 501.693 58.3735 501.643 57.9029C501.613 57.7089 501.662 57.5111 501.779 57.353C501.897 57.1949 502.072 57.0894 502.268 57.0597C502.307 57.0532 501.923 57.0597 505.872 57.0597C507.295 56.9183 507.758 58.0282 507.906 58.7253L513.692 81.3457L519.064 58.7253C519.149 58.2081 519.54 56.9472 521.137 57.0805H523.917C524.269 57.0516 525.717 57.0002 525.971 58.7462L531.385 81.6557L537.358 58.7462C537.435 58.396 537.798 56.9199 539.412 57.0805H542.606C542.744 57.0597 543.602 56.9504 543.457 58.4587C543.387 58.7558 544.009 56.7464 534.911 85.7483C534.725 86.6333 534.131 87.5296 532.857 87.414H529.83C528.058 87.5987 527.803 85.8624 527.776 85.6873L522.404 63.6612L517.094 85.6648C517.068 85.8399 516.814 87.5762 515.04 87.3915H512.075V87.3931ZM556.377 88.2974C555.425 88.299 550.882 88.2492 547.085 86.3233C546.707 86.1645 546.385 85.898 546.16 85.5574C545.934 85.2168 545.816 84.8176 545.82 84.4103V82.6836C545.82 81.3264 546.825 81.5754 547.251 81.7376C548.877 82.3897 549.92 82.8844 551.918 83.2796C557.855 84.489 560.466 82.9101 561.106 82.56C563.236 81.3055 563.405 78.4352 561.956 76.9462C560.259 75.5344 559.449 75.4814 553.35 73.5732C552.598 73.366 546.27 71.3871 546.256 65.163C546.157 60.6271 550.314 56.1393 557.518 56.1762C559.57 56.1746 565.039 56.8396 566.52 58.6852C566.738 59.0209 566.847 59.416 566.831 59.8159V61.4398C566.831 62.153 566.568 62.5096 566.042 62.5096C564.793 62.3714 562.577 60.7154 558.078 60.7829C556.962 60.725 551.616 60.929 551.856 64.7936C551.786 67.839 556.167 68.981 556.667 69.1127C562.574 70.8747 564.548 71.1671 566.892 73.8639C569.669 77.4377 568.172 81.6219 567.597 82.7688C564.506 88.7905 556.513 88.3006 556.377 88.2974ZM562.889 105.14C551.545 113.448 535.077 117.869 521.016 117.869C502.043 117.994 483.71 111.076 469.62 98.4776C468.562 97.5315 469.495 96.2353 470.781 96.9565C486.411 105.821 504.108 110.479 522.114 110.468C535.561 110.396 548.861 107.692 561.25 102.509C563.158 101.706 564.777 103.762 562.889 105.14ZM567.618 99.7931C566.167 97.9427 558.015 98.9289 554.365 99.361C553.265 99.4847 553.079 98.5386 554.075 97.8399C560.566 93.3152 571.227 94.6114 572.452 96.1325C573.675 97.6536 572.12 108.245 566.043 113.305C565.11 114.087 564.218 113.674 564.632 112.646C566 109.233 569.07 101.645 567.618 99.7931Z" fill="#737373"/>
</g>
<g clip-path="url(#clip7_2685_987)">
<g clip-path="url(#clip8_2685_987)">
<path d="M662.926 79.1617C660.531 79.1617 658.423 80.1559 656.875 81.7113C651.175 77.7505 643.495 75.2009 634.985 74.9283L639.407 54.9158L653.49 58.0909C653.49 61.5546 656.3 64.3768 659.749 64.3768C663.261 64.3768 666.087 61.4744 666.087 58.0107C666.087 54.547 663.277 51.6445 659.749 51.6445C657.29 51.6445 655.166 53.1358 654.113 55.1724L638.561 51.7087C637.779 51.5002 637.013 52.0615 636.805 52.8472L631.951 74.9122C623.505 75.265 615.905 77.8147 610.189 81.7755C608.64 80.1559 606.453 79.1617 604.058 79.1617C595.181 79.1617 592.275 91.1243 600.402 95.2133C600.114 96.4802 599.986 97.8272 599.986 99.1741C599.986 112.612 615.059 123.5 633.564 123.5C652.149 123.5 667.221 112.612 667.221 99.1741C667.221 97.8272 667.077 96.416 666.726 95.1492C674.693 91.0441 671.755 79.1617 662.926 79.1617ZM613.286 96.0632C613.286 92.5354 616.097 89.6971 619.625 89.6971C623.074 89.6971 625.884 92.5194 625.884 96.0632C625.884 99.5269 623.074 102.349 619.625 102.349C616.113 102.365 613.286 99.5269 613.286 96.0632ZM647.502 111.057C641.691 116.894 625.293 116.894 619.481 111.057C618.843 110.495 618.843 109.501 619.481 108.86C620.04 108.298 621.03 108.298 621.589 108.86C626.028 113.43 640.749 113.51 645.379 108.86C645.938 108.298 646.928 108.298 647.486 108.86C648.141 109.501 648.141 110.495 647.502 111.057ZM647.375 102.365C643.926 102.365 641.116 99.543 641.116 96.0793C641.116 92.5514 643.926 89.7131 647.375 89.7131C650.887 89.7131 653.713 92.5354 653.713 96.0793C653.697 99.5269 650.887 102.365 647.375 102.365Z" fill="#737373"/>
</g>
</g>
<defs>
<clipPath id="clip0_2685_987">
<rect width="107" height="34" fill="white" transform="translate(0 70.5)"/>
</clipPath>
<clipPath id="clip1_2685_987">
<rect width="103" height="34" fill="white" transform="translate(2 70.5)"/>
</clipPath>
<clipPath id="clip2_2685_987">
<rect width="83" height="59" fill="white" transform="translate(123.5 58)"/>
</clipPath>
<clipPath id="clip3_2685_987">
<rect width="102" height="75" fill="white" transform="translate(225.5 50)"/>
</clipPath>
<clipPath id="clip4_2685_987">
<rect width="106" height="42" fill="white" transform="translate(345 66.5)"/>
</clipPath>
<clipPath id="clip5_2685_987">
<rect width="103" height="42" fill="white" transform="translate(346.5 66.5)"/>
</clipPath>
<clipPath id="clip6_2685_987">
<rect width="104" height="62" fill="white" transform="translate(469 56)"/>
</clipPath>
<clipPath id="clip7_2685_987">
<rect width="85" height="72" fill="white" transform="translate(591 51.5)"/>
</clipPath>
<clipPath id="clip8_2685_987">
<rect width="76" height="72" fill="white" transform="translate(595.5 51.5)"/>
</clipPath>
</defs>
</svg>
